[
  {
    "objectCode":"WEAPONS_CONTROL",
    "title":"Weapons Control",
    "scenarioDescription":"You are at the weapons control console."
  },
  {
    "objectCode":"NAVIGATION",
    "title":"Navigation",
    "scenarioDescription":"You are at the navigation panel."
  },
  {
    "objectCode":"HELM",
    "title":"Helm",
    "scenarioDescription":"You are at the ship's helm."
  }
]